{
  "cart": [
    {
      "slug": "g1we",
      "amount": 1,
      "price": 67,
      "label": "Trekking1"
    }
  ],
  "contact": {
    "firstname": "Bingo",
    "lastname": "Bingeli",
    "street": "Some street name",
    "zip": "9077",
    "city": "Zuerich",
    "mobile": "988888888",
    "country": "CH",
    "email": "jvomaurer@gmail.com"
  },
  "meta": {
    "paymentMethod": "bank",
    "language": "de",
    "currency": "CHF"
  }
}